[comment encoding = UTF-8 /]
[module getResourceHandlerNoParents('platform:/plugin/eu.scasefp7.eclipse.mde.m2m/Metamodels/AnnotationLayerStack.ecore','platform:/plugin/eu.scasefp7.eclipse.mde.m2m/Metamodels/DesignPatternsLayerPSMMetamodel.ecore', 'platform:/plugin/eu.scasefp7.eclipse.mde.m2m/Metamodels/AuthenticationPSMMetamodel.ecore', 'platform:/plugin/eu.scasefp7.eclipse.mde.m2m/Metamodels/PSMMetamodel.ecore','platform:/plugin/eu.scasefp7.eclipse.mde.m2m/Metamodels/SearchLayerPSMMetamodel.ecore')]


[template public getResourceHandlerNoParents(anAnnotationStack : AnnotationStack, httpVerb : HTTPVerb, jRC : JavaResourceController)]
[file (anAnnotationStack.hasCorePSM.name + '/src/main/java/eu/fp7/scase/' + anAnnotationStack.hasCorePSM.name.toLowerCase() + '/' + jRC.parentName + '/' + 'Get'  + jRC.parentName + 'Handler.java', false, 'UTF-8')]
/*
 * ARISTOSTLE UNIVERSITY OF THESSALONIKI
 * Copyright (C) 2015
 * Aristotle University of Thessaloniki
 * Department of Electrical & Computer Engineering
 * Division of Electronics & Computer Engineering
 * Intelligent Systems & Software Engineering Lab
 *
 * Project             : [anAnnotationStack.hasCorePSM.name/]
 * WorkFile            : 
 * Compiler            : 
 * File Description    : 
 * Document Description: 
* Related Documents	   : 
* Note				   : 
* Programmer		   : RESTful MDE Engine created by Christoforos Zolotas / Design patterns implementations created by Dontsios Dimitrios
* Contact			   : christopherzolotas@issel.ee.auth.gr / dontsios@gmail.com
*/


package eu.fp7.scase.[anAnnotationStack.hasCorePSM.name.toLowerCase()/].[jRC.parentName/];


import javax.ws.rs.core.UriInfo;
[if (anAnnotationStack.bHasAuthenticationAnnotation)]
[if (anAnnotationStack.hasGuestMode(jRC.parentName) = false)]
import javax.ws.rs.WebApplicationException;
import javax.ws.rs.core.Response;
import com.sun.jersey.core.util.Base64;
import eu.fp7.scase.[anAnnotationStack.hasCorePSM.name.toLowerCase()/].[anAnnotationStack.getAuthenticationPerformer().authenticationModelParentName/].[anAnnotationStack.getAuthenticationPerformer().authenticationModelName/];
[/if]
[/if]
[if (anAnnotationStack.bHasDesignPatternsLayer and anAnnotationStack.hasBuilderPattern())]
[if (anAnnotationStack.getJavaRepresentableResources().annotatesJavaResourceModel.name-> includes(jRC.hasAssociatedJavaRModel.name)) ]
import eu.fp7.scase.[anAnnotationStack.hasCorePSM.name.toLowerCase()/].[jRC.parentName/].[jRC.hasAssociatedJavaRModel.name/]Representation;
import java.util.Arrays;
[/if]
[/if]

import eu.fp7.scase.[anAnnotationStack.hasCorePSM.name.toLowerCase()/].utilities.HypermediaLink;
import eu.fp7.scase.[anAnnotationStack.hasCorePSM.name.toLowerCase()/].utilities.HibernateController;

/* This class processes GET requests for [jRC.parentName/] resources and creates the hypermedia to be returned to the client*/
public class Get[jRC.parentName/]Handler{


    private HibernateController oHibernateController;
    private UriInfo oApplicationUri; //Standard datatype that holds information on the URI info of this request
	private String strResourcePath; //relative path to the current resource
	[if (anAnnotationStack.bHasDesignPatternsLayer and anAnnotationStack.hasBuilderPattern())][if (anAnnotationStack.getJavaRepresentableResources().annotatesJavaResourceModel.name-> includes(jRC.hasAssociatedJavaRModel.name)) ]
	private [jRC.hasAssociatedJavaRModel.name/]Representation o[jRC.hasAssociatedJavaRModel.name/]Representation;
	[/if][/if]
    private [jRC.hasAssociatedJavaRModel.name/] o[jRC.hasAssociatedJavaRModel.name/];
	[if (anAnnotationStack.bHasAuthenticationAnnotation)]
	[if (anAnnotationStack.hasGuestMode(jRC.parentName) = false)]
	private String authHeader;
	private [anAnnotationStack.getAuthenticationPerformer().authenticationModelName/] oAuthentication[anAnnotationStack.getAuthenticationPerformer().authenticationModelParentName.toUpperFirst()/];
	[/if]
	[/if]

    public Get[jRC.parentName/]Handler([if (anAnnotationStack.bHasAuthenticationAnnotation)][if (anAnnotationStack.hasGuestMode(jRC.parentName) = false)]String authHeader, [/if][/if]int [jRC.parentName/]Id,[if (anAnnotationStack.bHasDesignPatternsLayer and anAnnotationStack.hasBuilderPattern() and anAnnotationStack.getJavaRepresentableResources().annotatesJavaResourceModel.name-> includes(jRC.hasAssociatedJavaRModel.name))]String representationName,[/if]  UriInfo oApplicationUri){
        o[jRC.hasAssociatedJavaRModel.name/] = new [jRC.hasAssociatedJavaRModel.name/]();
        o[jRC.hasAssociatedJavaRModel.name/].set[jRC.parentName/]Id([jRC.parentName/]Id);
        [if (anAnnotationStack.bHasDesignPatternsLayer and anAnnotationStack.hasBuilderPattern())][if (anAnnotationStack.getJavaRepresentableResources().annotatesJavaResourceModel.name-> includes(jRC.hasAssociatedJavaRModel.name)) ]o[jRC.hasAssociatedJavaRModel.name/]Representation = new [jRC.hasAssociatedJavaRModel.name/]Representation();[/if][/if]
		this.oHibernateController = HibernateController.getHibernateControllerHandle();
        this.oApplicationUri = oApplicationUri;
		this.strResourcePath = calculateProperResourcePath();
		[if (anAnnotationStack.bHasAuthenticationAnnotation)]
		[if (anAnnotationStack.hasGuestMode( jRC.parentName) = false)]
		this.authHeader = authHeader;
		this.oAuthentication[anAnnotationStack.getAuthenticationPerformer().authenticationModelParentName.toUpperFirst()/] = new [anAnnotationStack.getAuthenticationPerformer().authenticationModelName/](); 
		[/if] 
		[/if]
    }

	public String calculateProperResourcePath(){
    	if(this.oApplicationUri.getPath().lastIndexOf('/') == this.oApplicationUri.getPath().length() - 1){
        	return this.oApplicationUri.getPath().substring(0, this.oApplicationUri.getPath().length() - 1);
    	}
    	else{
        	return this.oApplicationUri.getPath();
    	}
	}

	[if (anAnnotationStack.bHasDesignPatternsLayer and anAnnotationStack.hasBuilderPattern())]
[if (anAnnotationStack.getJavaRepresentableResources().annotatesJavaResourceModel.name-> includes(jRC.hasAssociatedJavaRModel.name)) ]

	public [jRC.hasAssociatedJavaRModel.name/]Representation get[jRC.hasAssociatedJavaRModel.name/]Representation(String representationName){
		o[jRC.hasAssociatedJavaRModel.name/] = oHibernateController.get[jRC.hasAssociatedJavaRModel.parentName/](o[jRC.hasAssociatedJavaRModel.name/]);
		String['['/][ ']' /] representationNames = {[for(jCBuilder : JavaConcreteBuilder | anAnnotationStack.getJavaConcreteBuilders())][if (jCBuilder.associatesAnnJavaResourceModel.annotatesJavaResourceModel.parentName = jRC.parentName)] "[jRC.hasAssociatedJavaRModel.parentName/][for (repName : String | jCBuilder.getRepresentationPropertyNames())]_[repName/][/for]",[/if][/for]};
		if (Arrays.asList(representationNames).contains(representationName) ) {
		[for (jRMProperty : PSMComponentProperty | jRC.hasAssociatedJavaRModel.JavaRModelHasProperty)]
			[if (anAnnotationStack.getRepresentationProperties().annotatesPSMComponentProperty -> includes(jRMProperty))]	
		if(representationName.contains("[jRMProperty.name/]")){
			o[jRC.hasAssociatedJavaRModel.name/]Representation.[jRMProperty.name/](o[jRC.hasAssociatedJavaRModel.name/].get[jRMProperty.name/]()).build();
		}	[else]
			o[jRC.hasAssociatedJavaRModel.name/]Representation.[jRMProperty.name/](o[jRC.hasAssociatedJavaRModel.name/].get[jRMProperty.name/]()).build();
			[/if]
		//[jRMProperty.name/] 
		//[anAnnotationStack.getRepresentationProperties().annotatesPSMComponentProperty/]
		[/for]
		}else{
			o[jRC.hasAssociatedJavaRModel.name/]Representation.set[jRC.hasAssociatedJavaRModel.parentName/]RepresentationName("[jRC.hasAssociatedJavaRModel.parentName/][for (jRMProperty : PSMComponentProperty | jRC.hasAssociatedJavaRModel.JavaRModelHasProperty)][if (anAnnotationStack.getRepresentationProperties().annotatesPSMComponentProperty -> includes(jRMProperty))]_[jRMProperty.name/][/if][/for]");
		}
		o[jRC.hasAssociatedJavaRModel.name/]Representation.[jRC.hasAssociatedJavaRModel.parentName/]Id(o[jRC.hasAssociatedJavaRModel.name/].get[jRC.hasAssociatedJavaRModel.parentName/]Id()); //[for (javaSetterFunction : JavaSetterFunction | jRC.hasAssociatedJavaRModel.JavaRModelHasSetter)].[if (javaSetterFunction.hasFunctionParameter->at(1).name = 'linklist')]ListOf[javaSetterFunction.hasFunctionParameter->at(1).type/](o[jRC.hasAssociatedJavaRModel.name/].getListOf[javaSetterFunction.hasFunctionParameter->at(1).type/]())[elseif (javaSetterFunction.hasFunctionParameter->at(1).bIsUnique = false)]SetOf[javaSetterFunction.hasFunctionParameter->at(1).type/](o[jRC.hasAssociatedJavaRModel.name/].getSetOf[javaSetterFunction.hasFunctionParameter->at(1).type/]())[else][javaSetterFunction.hasFunctionParameter->at(1).name/](o[jRC.hasAssociatedJavaRModel.name/].get[javaSetterFunction.hasFunctionParameter->at(1).type/]())[/if][/for].build();
		return createHypermedia(o[jRC.hasAssociatedJavaRModel.name/]Representation);
	}
[/if]
	[/if]

    

	[if (anAnnotationStack.bHasAuthenticationAnnotation)]
	[if (anAnnotationStack.hasGuestMode(jRC.parentName) = false)]
	/* This function performs the decoding of the authentication header */
    public void decodeAuthorizationHeader()
    {
    	//check if this request has basic authentication
    	if( !authHeader.contains("Basic "))
    	{
    		throw new WebApplicationException(Response.Status.BAD_REQUEST);
    	}
    	
        authHeader = authHeader.substring("Basic ".length());
        String['['/][']'/] decodedHeader;
        decodedHeader = Base64.base64Decode(authHeader).split(":");
        
        if( decodedHeader == null)
        {
        	throw new WebApplicationException(Response.Status.BAD_REQUEST);
        }
        
        oAuthentication[anAnnotationStack.getAuthenticationPerformer().authenticationModelParentName.toUpperFirst()/].set[anAnnotationStack.getUsernameToken().name/](decodedHeader['['/]0[']'/]);
        oAuthentication[anAnnotationStack.getAuthenticationPerformer().authenticationModelParentName.toUpperFirst()/].set[anAnnotationStack.getPasswordToken().name/](decodedHeader['['/]1[']'/]);
    }
	[/if]
	[/if]


	
[if (anAnnotationStack.bHasDesignPatternsLayer and anAnnotationStack.hasBuilderPattern() and anAnnotationStack.getJavaRepresentableResources().annotatesJavaResourceModel.name -> includes(jRC.hasAssociatedJavaRModel.name))] 
    /* This function produces hypermedia links to be sent to the client so as it will be able to forward the application state in a valid way.*/
	 public [jRC.hasAssociatedJavaRModel.name/]Representation createHypermedia([jRC.hasAssociatedJavaRModel.name/]Representation o[jRC.hasAssociatedJavaRModel.name/]Representation){

        /* Create hypermedia links towards this specific [jRC.parentName/] resource. These can be GET, PUT and/or delete depending on what was specified in the service CIM.*/
		[if (jRC.JavaRControllerHasHTTPActivity->exists(httpActivity : HTTPActivity | httpActivity.ActivityHTTPVerb->includes(HTTPVerb::GET)))]
        o[jRC.hasAssociatedJavaRModel.name/]Representation.getlinklist().add(new HypermediaLink(String.format("%s%s", oApplicationUri.getBaseUri(), this.strResourcePath), "Get the [jRC.parentName/]", "GET", "Sibling"));
		[/if]
		[if (jRC.JavaRControllerHasHTTPActivity->exists(httpActivity : HTTPActivity | httpActivity.ActivityHTTPVerb->includes(HTTPVerb::PUT)))]
        o[jRC.hasAssociatedJavaRModel.name/]Representation.getlinklist().add(new HypermediaLink(String.format("%s%s", oApplicationUri.getBaseUri(), this.strResourcePath), "Update the [jRC.parentName/]", "PUT", "Sibling"));
		[/if]
		[if (jRC.JavaRControllerHasHTTPActivity->exists(httpActivity : HTTPActivity | httpActivity.ActivityHTTPVerb->includes(HTTPVerb::DELETE)))]
        o[jRC.hasAssociatedJavaRModel.name/]Representation.getlinklist().add(new HypermediaLink(String.format("%s%s", oApplicationUri.getBaseUri(), this.strResourcePath), "Delete the [jRC.parentName/]", "DELETE", "Sibling"));
		[/if]

		[if (anAnnotationStack.hasCorePSM.hasJavaRModel->select(childRM : JavaResourceModel | jRC.hasAssociatedJavaRModel.hasRelatedJavaRMManager.hasRelatedJavaRModel->includes(childRM))->size() > 0)]
        /* Calculate the relative path towards any related resources of this one. Then add each new hypermedia link with that relative path to the hypermedia linklist to be sent back to client.*/
        String oRelativePath;
		oRelativePath = this.strResourcePath;
		[/if]
		[for (cRM : JavaResourceModel | anAnnotationStack.hasCorePSM.hasJavaRModel->select(childRM : JavaResourceModel | jRC.hasAssociatedJavaRModel.hasRelatedJavaRMManager.hasRelatedJavaRModel->includes(childRM))) separator('\n')]
		[if (anAnnotationStack.hasCorePSM.hasJavaRModel->select(parentRM : JavaResourceModel | parentRM.hasRelatedJavaRMManager.hasRelatedJavaRModel->includes(cRM))->size() > 1)]
        o[jRC.hasAssociatedJavaRModel.name/]Representation.getlinklist().add(new HypermediaLink(String.format("%s%s/%s/%s", oApplicationUri.getBaseUri(), "multi[cRM.parentName/]Manager", oRelativePath, "[cRM.parentName/]"), "Get all the [cRM.parentName/]s of this [jRC.parentName/]", "GET", "Child"));
        o[jRC.hasAssociatedJavaRModel.name/]Representation.getlinklist().add(new HypermediaLink(String.format("%s%s/%s/%s", oApplicationUri.getBaseUri(), "multi[cRM.parentName/]Manager", oRelativePath, "[cRM.parentName/]"), "Create a new [cRM.parentName/] for this [jRC.parentName/]", "POST", "Child"));
		[else]
        o[jRC.hasAssociatedJavaRModel.name/]Representation.getlinklist().add(new HypermediaLink(String.format("%s%s/%s", oApplicationUri.getBaseUri(), oRelativePath, "[cRM.parentName/]"), "Get all the [cRM.parentName/]s of this [jRC.parentName/]", "GET", "Child"));
        o[jRC.hasAssociatedJavaRModel.name/]Representation.getlinklist().add(new HypermediaLink(String.format("%s%s/%s", oApplicationUri.getBaseUri(), oRelativePath, "[cRM.parentName/]"), "Create a new [cRM.parentName/] for this [jRC.parentName/]", "POST", "Child"));
		[/if]
		[/for]

        /* Finally, truncate the current URI so as to point to the resource manager of which this resource is related.
        Then create the hypermedia links towards the parent resources.*/
        int iLastSlashIndex = String.format("%s%s", oApplicationUri.getBaseUri(), this.strResourcePath).lastIndexOf("/");
        o[jRC.hasAssociatedJavaRModel.name/]Representation.getlinklist().add(new HypermediaLink(String.format("%s%s", oApplicationUri.getBaseUri(), this.strResourcePath).substring(0, iLastSlashIndex), "Create a new [jRC.parentName/]", "POST", "Parent"));
        o[jRC.hasAssociatedJavaRModel.name/]Representation.getlinklist().add(new HypermediaLink(String.format("%s%s", oApplicationUri.getBaseUri(), this.strResourcePath).substring(0, iLastSlashIndex), "Get all [jRC.parentName/]s", "GET", "Parent"));
        return o[jRC.hasAssociatedJavaRModel.name/]Representation;
    }
[else]
	public [jRC.hasAssociatedJavaRModel.name/] get[jRC.hasAssociatedJavaRModel.name/](){

		[if (anAnnotationStack.bHasAuthenticationAnnotation)]
		[if (anAnnotationStack.hasGuestMode(jRC.parentName) = false)]
    	//check if there is a non null authentication header
    	if(authHeader == null){
    		throw new WebApplicationException(Response.Status.FORBIDDEN);
    	}
		[if (anAnnotationStack.hasBothModeAuthentication(jRC.parentName))]
		else if(authHeader.equalsIgnoreCase("guest")){ //if guest and authentication mode are allowed, check if the request originates from a guest user
			return createHypermedia(oHibernateController.get[jRC.parentName/](o[jRC.hasAssociatedJavaRModel.name/]));
		}
		[/if]
		else{
	    	//decode the auth header
    		decodeAuthorizationHeader();

        	//authenticate the user against the database
        	oAuthentication[anAnnotationStack.getAuthenticationPerformer().authenticationModelParentName.toUpperFirst()/] = oHibernateController.authenticateUser(oAuthentication[anAnnotationStack.getAuthenticationPerformer().authenticationModelParentName.toUpperFirst()/]);

			//check if the authentication failed
			if(oAuthentication[anAnnotationStack.getAuthenticationPerformer().authenticationModelParentName.toUpperFirst()/] == null){
        		throw new WebApplicationException(Response.Status.UNAUTHORIZED);
        	}
		}
		[/if] 
		[/if]

        return createHypermedia(oHibernateController.get[jRC.parentName/](o[jRC.hasAssociatedJavaRModel.name/]));
    }


	/* This function produces hypermedia links to be sent to the client so as it will be able to forward the application state in a valid way.*/
	 public [jRC.hasAssociatedJavaRModel.name/] createHypermedia([jRC.hasAssociatedJavaRModel.name/] o[jRC.hasAssociatedJavaRModel.name/]){

        /* Create hypermedia links towards this specific [jRC.parentName/] resource. These can be GET, PUT and/or delete depending on what was specified in the service CIM.*/
		[if (jRC.JavaRControllerHasHTTPActivity->exists(httpActivity : HTTPActivity | httpActivity.ActivityHTTPVerb->includes(HTTPVerb::GET)))]
        o[jRC.hasAssociatedJavaRModel.name/].getlinklist().add(new HypermediaLink(String.format("%s%s", oApplicationUri.getBaseUri(), this.strResourcePath), "Get the [jRC.parentName/]", "GET", "Sibling"));
		[/if]
		[if (jRC.JavaRControllerHasHTTPActivity->exists(httpActivity : HTTPActivity | httpActivity.ActivityHTTPVerb->includes(HTTPVerb::PUT)))]
        o[jRC.hasAssociatedJavaRModel.name/].getlinklist().add(new HypermediaLink(String.format("%s%s", oApplicationUri.getBaseUri(), this.strResourcePath), "Update the [jRC.parentName/]", "PUT", "Sibling"));
		[/if]
		[if (jRC.JavaRControllerHasHTTPActivity->exists(httpActivity : HTTPActivity | httpActivity.ActivityHTTPVerb->includes(HTTPVerb::DELETE)))]
        o[jRC.hasAssociatedJavaRModel.name/].getlinklist().add(new HypermediaLink(String.format("%s%s", oApplicationUri.getBaseUri(), this.strResourcePath), "Delete the [jRC.parentName/]", "DELETE", "Sibling"));
		[/if]

		[if (anAnnotationStack.hasCorePSM.hasJavaRModel->select(childRM : JavaResourceModel | jRC.hasAssociatedJavaRModel.hasRelatedJavaRMManager.hasRelatedJavaRModel->includes(childRM))->size() > 0)]
        /* Calculate the relative path towards any related resources of this one. Then add each new hypermedia link with that relative path to the hypermedia linklist to be sent back to client.*/
        String oRelativePath;
		oRelativePath = this.strResourcePath;
		[/if]
		[for (cRM : JavaResourceModel | anAnnotationStack.hasCorePSM.hasJavaRModel->select(childRM : JavaResourceModel | jRC.hasAssociatedJavaRModel.hasRelatedJavaRMManager.hasRelatedJavaRModel->includes(childRM))) separator('\n')]
		[if (anAnnotationStack.hasCorePSM.hasJavaRModel->select(parentRM : JavaResourceModel | parentRM.hasRelatedJavaRMManager.hasRelatedJavaRModel->includes(cRM))->size() > 1)]
        o[jRC.hasAssociatedJavaRModel.name/].getlinklist().add(new HypermediaLink(String.format("%s%s/%s/%s", oApplicationUri.getBaseUri(), "multi[cRM.parentName/]Manager", oRelativePath, "[cRM.parentName/]"), "Get all the [cRM.parentName/]s of this [jRC.parentName/]", "GET", "Child"));
        o[jRC.hasAssociatedJavaRModel.name/].getlinklist().add(new HypermediaLink(String.format("%s%s/%s/%s", oApplicationUri.getBaseUri(), "multi[cRM.parentName/]Manager", oRelativePath, "[cRM.parentName/]"), "Create a new [cRM.parentName/] for this [jRC.parentName/]", "POST", "Child"));
		[else]
        o[jRC.hasAssociatedJavaRModel.name/].getlinklist().add(new HypermediaLink(String.format("%s%s/%s", oApplicationUri.getBaseUri(), oRelativePath, "[cRM.parentName/]"), "Get all the [cRM.parentName/]s of this [jRC.parentName/]", "GET", "Child"));
        o[jRC.hasAssociatedJavaRModel.name/].getlinklist().add(new HypermediaLink(String.format("%s%s/%s", oApplicationUri.getBaseUri(), oRelativePath, "[cRM.parentName/]"), "Create a new [cRM.parentName/] for this [jRC.parentName/]", "POST", "Child"));
		[/if]
		[/for]

        /* Finally, truncate the current URI so as to point to the resource manager of which this resource is related.
        Then create the hypermedia links towards the parent resources.*/
        int iLastSlashIndex = String.format("%s%s", oApplicationUri.getBaseUri(), this.strResourcePath).lastIndexOf("/");
        o[jRC.hasAssociatedJavaRModel.name/].getlinklist().add(new HypermediaLink(String.format("%s%s", oApplicationUri.getBaseUri(), this.strResourcePath).substring(0, iLastSlashIndex), "Create a new [jRC.parentName/]", "POST", "Parent"));
        o[jRC.hasAssociatedJavaRModel.name/].getlinklist().add(new HypermediaLink(String.format("%s%s", oApplicationUri.getBaseUri(), this.strResourcePath).substring(0, iLastSlashIndex), "Get all [jRC.parentName/]s", "GET", "Parent"));
        return o[jRC.hasAssociatedJavaRModel.name/];
    }
[/if]
}

/*
1st try
[anAnnotationStack.hasDesignPatternsLayer.hasAnnotatedElement/]

2nd try
[anAnnotationStack.getJavaRepresentableResources()/]

wtf is going on here
[anAnnotationStack.hasDesignPatternsLayer.hasAnnotatedElement -> at(1) /]

wtf is going on here 2
[anAnnotationStack.hasDesignPatternsLayer.hasAnnotatedElement -> exists(a | a.oclIsTypeOf( AnnPSMComponentProperty)) /]

wtf is going on here 3
[anAnnotationStack.hasDesignPatternsLayer.hasAnnotatedElement -> at(2) /]

wtf is going on here 4
[anAnnotationStack.hasDesignPatternsLayer.hasAnnotatedElement -> at(2).oclIsTypeOf( AnnPSMComponentProperty ) /]


3rd
[anAnnotationStack.hasDesignPatternsLayer.hasAnnotatedElement -> asSet().toString()/]

Does it recognise AnnPSMCOMPONENTPROPERTY
[anAnnotationStack.hasDesignPatternsLayer.hasAnnotatedElement -> exists(a | a.oclIsTypeOf( AnnPSMComponentProperty)) /]

AnnPSMComponentProperty list?
[anAnnotationStack.hasDesignPatternsLayer.hasAnnotatedElement -> select(a | a.oclIsTypeOf( AnnPSMComponentProperty )) -> asSequence() /]

test
[anAnnotationStack.hasDesignPatternsLayer.hasAnnotation -> select(a | a.oclIsTypeOf(JavaBuilderPattern)) -> asSequence() /]

test 2 correct
[anAnnotationStack.getBuilderPattern().hasJavaDirector.hasJavaBuilder -> asSequence() -> size()/]

test 3 correct
[anAnnotationStack.getBuilderPattern().hasJavaDirector.hasJavaBuilder -> asSequence()/]

test 4 correct
[anAnnotationStack.getBuilderPattern().hasJavaDirector.hasJavaBuilder -> asSequence() -> select (a|a.oclIsTypeOf(JavaConcreteBuilder))/]

test 5 correct
[anAnnotationStack.getBuilderRepresentations()/]

test6 correct
[for ( jCΒuilder : JavaConcreteBuilder | anAnnotationStack.getJavaConcreteBuilders())]
	[jCΒuilder.buildsJavaRepresentation.name/]
[/for]

test7 correct
[for ( jCΒuilder : JavaConcreteBuilder | anAnnotationStack.getJavaConcreteBuilders())]
	[jCΒuilder.buildsJavaRepresentation.has.annotatesPSMComponentProperty/]
[/for]

test8
[for ( jCΒuilder : JavaConcreteBuilder | anAnnotationStack.getJavaConcreteBuilders())]
	[jCΒuilder.buildsJavaRepresentation.has.annotatesPSMComponentProperty.name/]
[/for]

test9 corrext
[for ( jCΒuilder : JavaConcreteBuilder | anAnnotationStack.getJavaConcreteBuilders())]
	[for ( name : String | jCΒuilder.buildsJavaRepresentation.has.annotatesPSMComponentProperty.name)]
		[name/]
	[/for]
[/for]

*/

[/file]
[/template]

[query private hasBothModeAuthentication(anAnnotationStack : AnnotationStack, resourceName : String) : Boolean =
	getAuthenticationLayerBothModeAnnotations(anAnnotationStack)->exists(bothModeAnnotation | bothModeAnnotation.HTTPActivityHandlerHasAuthenticationMode->exists(annHTTPActivityHandler | annHTTPActivityHandler.annotatesHTTPActivityHandler.name = 'Get' + resourceName + 'Handler'))
/]

[query private getAuthenticationLayerBothModeAnnotations(anAnnotationStack : AnnotationStack) : Sequence(BothMode) =
	anAnnotationStack.hasAuthenticationLayer.hasAnnotation->select( annotation | annotation.oclIsTypeOf(BothMode))->asSequence()
/]

[query private hasAuthenticationOnlyMode(anAnnotationStack : AnnotationStack, resourceName : String) : Boolean =
	getAuthenticationLayerAuthenticationOnlyModeAnnotations(anAnnotationStack)->exists(authenticationOnlyMode | authenticationOnlyMode.HTTPActivityHandlerHasAuthenticationMode->exists(annHTTPActivityHandler | annHTTPActivityHandler.annotatesHTTPActivityHandler.name = 'Get' + resourceName + 'Handler'))
/]

[query private getAuthenticationLayerAuthenticationOnlyModeAnnotations(anAnnotationStack : AnnotationStack) : Sequence(AuthenticationOnlyMode) =
	anAnnotationStack.hasAuthenticationLayer.hasAnnotation->select( annotation | annotation.oclIsTypeOf(AuthenticationOnlyMode))->asSequence()
/]

[query private hasGuestMode(anAnnotationStack : AnnotationStack, resourceName : String) : Boolean =
	getAuthenticationLayerGuestModeAnnotations(anAnnotationStack)->exists(guestMode | guestMode.HTTPActivityHandlerHasAuthenticationMode->exists(annHTTPActivityHandler | annHTTPActivityHandler.annotatesHTTPActivityHandler.name = 'Get' + resourceName + 'Handler'))
/]

[query private getAuthenticationLayerGuestModeAnnotations(anAnnotationStack : AnnotationStack) : Sequence(GuestMode) =
	anAnnotationStack.hasAuthenticationLayer.hasAnnotation->select( annotation | annotation.oclIsTypeOf(GuestMode))->asSequence()
/]

[query private getAuthenticationPerformer(anAnnotationStack : AnnotationStack) : AuthenticationPerformer =
	anAnnotationStack.hasAuthenticationLayer.hasAnnotation->select(annotation | annotation.oclIsTypeOf(AuthenticationPerformer))->at(1)
/]

[query private getPasswordToken(anAnnotationStack : AnnotationStack) : Password =
	anAnnotationStack.getAuthenticationPerformer().hasAuthenticationToken->select(authenticationToken | authenticationToken.oclIsTypeOf(Password))->at(1)
/]

[query private getUsernameToken(anAnnotationStack : AnnotationStack) : AuthenticationToken =
	anAnnotationStack.getAuthenticationPerformer().hasAuthenticationToken->select(authenticationToken | authenticationToken.oclIsTypeOf(Password) = false)->at(1)
/]

[query private getRepresentationProperties(anAnnotationStack : AnnotationStack): Sequence(AnnPSMComponentProperty) = 
	anAnnotationStack.hasDesignPatternsLayer.hasAnnotatedElement -> select(a | a.oclIsTypeOf(AnnPSMComponentProperty)) ->asSequence()
/]

[query private getJavaBuilderPattern(anAnnotationStack : AnnotationStack) : Set(JavaBuilderPattern) =
		anAnnotationStack.hasDesignPatternsLayer.hasAnnotation -> select (a | a.oclIsTypeOf(JavaBuilderPattern)) -> asSet()
/]

[query private getJavaRepresentableResources(anAnnotationStack : AnnotationStack) : Set(AnnJavaResourceModel) = 
	anAnnotationStack.getJavaBuilderPattern().hasJavaDirector.hasJavaBuilder.associatesAnnJavaResourceModel -> asSet()
/]

[query private getHasJavaRepresentation(anAnnotationStack : AnnotationStack) : Set(AnnJavaResourceModel) =
	anAnnotationStack.hasDesignPatternsLayer.hasAnnotatedElement -> select(a | a.oclIsTypeOf(AnnJavaResourceModel))->asSet()
/]

[query private getJavaRepresentations(anAnnotationStack : AnnotationStack) : Sequence(JavaResourceModel) =
	anAnnotationStack.hasDesignPatternsLayer.hasAnnotatedElement -> select(a | a.oclIsTypeOf(JavaResourceModel))->asSequence()
/]

[query private getBuilderPattern(anAnnotationStack : AnnotationStack) : Sequence(JavaBuilderPattern) =
	anAnnotationStack.hasDesignPatternsLayer.hasAnnotation -> select(a | a.oclIsTypeOf(JavaBuilderPattern)) -> asSequence()
/]

[query private getBuilderRepresentations(anAnnotationStack : AnnotationStack) : Sequence(JavaBuilder) = 
	anAnnotationStack.getBuilderPattern().hasJavaDirector.hasJavaBuilder -> asSequence()
/]

[query private getJavaConcreteBuilders(anAnnotationStack : AnnotationStack) : JavaConcreteBuilder = 
	anAnnotationStack.getBuilderPattern().hasJavaDirector.hasJavaBuilder -> select(a| a.oclIsTypeOf(JavaConcreteBuilder))
/]

[query private getRepresentationPropertyNames( jCΒuilder : JavaConcreteBuilder) : Sequence(String) =
	jCΒuilder.buildsJavaRepresentation.has.annotatesPSMComponentProperty.name -> asSequence()
/]

[query private hasBuilderPattern(anAnnotationStack : AnnotationStack) : Boolean =
	anAnnotationStack.hasDesignPatternsLayer.hasAnnotation -> exists(annotation | annotation.oclIsTypeOf(JavaBuilderPattern))
/]