[comment encoding = UTF-8 /]
[module javaResourceControllerManager('platform:/plugin/eu.scasefp7.eclipse.mde.m2m/Metamodels/AnnotationLayerStack.ecore', 'platform:/plugin/eu.scasefp7.eclipse.mde.m2m/Metamodels/DesignPatternsLayerPSMMetamodel.ecore', 'platform:/plugin/eu.scasefp7.eclipse.mde.m2m/Metamodels/AuthenticationPSMMetamodel.ecore', 'platform:/plugin/eu.scasefp7.eclipse.mde.m2m/Metamodels/PSMMetamodel.ecore')]

[template public javaResourceControllerManager(anAnnotationStack : AnnotationStack)]

[for (jRCManager : JavaResourceControllerManager | anAnnotationStack.hasCorePSM.hasJavaRCManager)]
[file (anAnnotationStack.hasCorePSM.name + '/src/main/java/eu/fp7/scase/' + anAnnotationStack.hasCorePSM.name.toLowerCase() + '/' + jRCManager.parentName + '/' + jRCManager.name + '.java', false, 'UTF-8')]
/*
 * ARISTOSTLE UNIVERSITY OF THESSALONIKI
 * Copyright (C) 2015
 * Aristotle University of Thessaloniki
 * Department of Electrical & Computer Engineering
 * Division of Electronics & Computer Engineering
 * Intelligent Systems & Software Engineering Lab
 *
 * Project             : [anAnnotationStack.hasCorePSM.name/]
 * WorkFile            : 
 * Compiler            : 
 * File Description    : 
 * Document Description: 
* Related Documents	   : 
* Note				   : 
* Programmer		   : RESTful MDE Engine created by Christoforos Zolotas
* Contact			   : christopherzolotas@issel.ee.auth.gr
*/


package eu.fp7.scase.[anAnnotationStack.hasCorePSM.name.toLower()/].[jRCManager.parentName/];


import javax.ws.rs.Consumes;
import javax.ws.rs.GET;
import javax.ws.rs.POST;
import javax.ws.rs.Path;
[if (jRCManager.JavaRCManagerHasHTTPActivity.hasHTTPActivityParameter->exists(httpParameter : HTTPActivityFunctionParameter | httpParameter.HTTPFunctionParameterHasJAXRSAnnotation.oclIsUndefined() = false ))]
import javax.ws.rs.PathParam;
[/if]
import javax.ws.rs.Produces;
import javax.ws.rs.core.Context;
import javax.ws.rs.core.UriInfo;
[if (anAnnotationStack.bHasAuthenticationAnnotation)]
import javax.ws.rs.HeaderParam;
import javax.ws.rs.DefaultValue;
[/if]

[comment The Observer Code from here ../]
[if (anAnnotationStack.hasObserverPattern())]
import javax.ws.rs.QueryParam;
import javax.ws.rs.DefaultValue;
[/if]
[comment ..to here/]


/* This class defines the web API of the manager [jRCManager.parentName/] resource. It handles POST and GET HTTP requests, as it is prescribed by the meta-models.*/
[jRCManager.JavaRCManagerHasJAXRSAnnotation.JAXRSAnnotationText/]
public class [jRCManager.name/]{

    @Context
    private UriInfo oApplicationUri;
[comment The Observer Code from here anAnnotationStack.getJavaObservableAnnResources().annotatesJavaResourceModel -> asSet() -> includes(jRModel) ../]
[if (anAnnotationStack.bHasDesignPatternsLayer)]
[if (anAnnotationStack.hasObserverPattern() and anAnnotationStack.getJavaObservableAnnResources() ->collect(a|a.annotatesJavaResourceModel ) ->asSequence() ->includes(jRCManager.hasAssociatedRMManager.hasRelatedJavaRModel))]
	[if (anAnnotationStack.getJavaObservableAnnResources() ->collect(a|a.annotatesJavaResourceModel ) ->asSequence() ->includes(jRCManager.hasAssociatedRMManager.hasRelatedJavaRModel))]
	[if(anAnnotationStack.getJavaObservableAnnResources().annotatesJavaResourceModel ->collect(a | a.parentName) -> asSet() -> includes(jRCManager.parentName) and anAnnotationStack.getJavaObservableAnnHTTPActivityHandler() -> select( a| anAnnotationStack.getJavaObservableAnnResources() -> collect(b | b.annotatesJavaResourceModel) -> asOrderedSet() -> at( anAnnotationStack.getJavaObservableAnnResources() -> collect(c | c.annotatesJavaResourceModel) -> asOrderedSet() -> indexOf(jRCManager.hasAssociatedRMManager.hasRelatedJavaRModel)) = a.referencesAnnJavaResourceModel.annotatesJavaResourceModel ).extendsAnnJavaHTTPActivityHandler.annotatesHTTPActivityHandler.HandlerHTTPVerb.toString() -> exists(c|c.equalsIgnoreCase('POST')))]
	[for (httpActivity : HTTPActivity | jRCManager.JavaRCManagerHasHTTPActivity->select(activity : HTTPActivity | activity.ActivityHTTPVerb = HTTPVerb::POST)) separator('\n')] 
		/* This function handles POST requests that are sent with any media type stated in the @Consumes JAX-RS annotation below 
	     and returns any response in any media type stated in the @Produces JAX-RS annotation below.*/
	    [for (activityJAXRSAnnotation : JAXRSAnnotation | httpActivity.HTTPActivityHasJAXRSAnnotation)]
		[activityJAXRSAnnotation.JAXRSAnnotationText/]
		[/for]
	    public [jRCManager.hasAssociatedRMManager.hasRelatedJavaRModel.name/] [httpActivity.name.toLowerFirst()/]([if (anAnnotationStack.bHasAuthenticationAnnotation)][if (httpActivity.hasBothModeAuthentication(anAnnotationStack))]@DefaultValue("guest") @HeaderParam("authorization") String authHeader, [elseif (httpActivity.hasAuthenticationOnlyMode(anAnnotationStack))]@HeaderParam("authorization") String authHeader, [/if][/if][for (httpActivityParam : HTTPActivityFunctionParameter | httpActivity.hasHTTPActivityParameter) separator(', ')][if (httpActivityParam.HTTPFunctionParameterHasJAXRSAnnotation.oclIsUndefined() =false)][httpActivityParam.HTTPFunctionParameterHasJAXRSAnnotation.JAXRSAnnotationText/][/if][httpActivityParam.type/] [httpActivityParam.name/][/for],@DefaultValue("none") @QueryParam("action") String observerAction,@DefaultValue("none") @QueryParam("reaction") String observerReaction,@DefaultValue("none") @QueryParam("observerId") String observerId){
	        Observable[httpActivity.hasHTTPActivityHandler.name/] oObservable[httpActivity.hasHTTPActivityHandler.name/] = new Observable[httpActivity.hasHTTPActivityHandler.name/]([if (anAnnotationStack.bHasAuthenticationAnnotation)][if(httpActivity.hasGuestMode(anAnnotationStack) = false)]authHeader, [/if][/if][if (anAnnotationStack.hasCorePSM.hasJavaRModel->select(parentRM : JavaResourceModel | parentRM.hasRelatedJavaRMManager.hasRelatedJavaRModel->includes(jRCManager.hasAssociatedRMManager.hasRelatedJavaRModel))->size() = 1)][anAnnotationStack.hasCorePSM.hasJavaRModel->select(javaPRM : JavaResourceModel | javaPRM.hasRelatedJavaRMManager.hasRelatedJavaRModel->includes(jRCManager.hasAssociatedRMManager.hasRelatedJavaRModel))->at(1).parentName/]Id, [elseif (anAnnotationStack.hasCorePSM.hasJavaRModel->select(jPRM : JavaResourceModel | jPRM.hasRelatedJavaRMManager.hasRelatedJavaRModel->includes(jRCManager.hasAssociatedRMManager.hasRelatedJavaRModel))->size() > 1)][anAnnotationStack.hasCorePSM.hasJavaRModel->select(jPRM : JavaResourceModel | jPRM.hasRelatedJavaRMManager.hasRelatedJavaRModel->includes(jRCManager.hasAssociatedRMManager.hasRelatedJavaRModel) and ('Post' + jPRM.parentName + jRCManager.parentName = httpActivity.name))->at(1).parentName/]Id, [/if]o[jRCManager.hasAssociatedRMManager.hasRelatedJavaRModel.name/], oApplicationUri);
	        int newObserverId = 0;
			[jRCManager.hasAssociatedRMManager.hasRelatedJavaRModel.name/] or[jRCManager.hasAssociatedRMManager.hasRelatedJavaRModel.name/] = oObservable[httpActivity.hasHTTPActivityHandler.name/].post[jRCManager.hasAssociatedRMManager.hasRelatedJavaRModel.name/]();
			return or[jRCManager.hasAssociatedRMManager.hasRelatedJavaRModel.name/];
	    }
	[/for]
	[else]
	[for (httpActivity : HTTPActivity | jRCManager.JavaRCManagerHasHTTPActivity->select(activity : HTTPActivity | activity.ActivityHTTPVerb = HTTPVerb::POST)) separator('\n')] 
		/* This function handles POST requests that are sent with any media type stated in the @Consumes JAX-RS annotation below 
	     and returns any response in any media type stated in the @Produces JAX-RS annotation below.*/
	    [for (activityJAXRSAnnotation : JAXRSAnnotation | httpActivity.HTTPActivityHasJAXRSAnnotation)]
		[activityJAXRSAnnotation.JAXRSAnnotationText/]
		[/for]
	    public [jRCManager.hasAssociatedRMManager.hasRelatedJavaRModel.name/] [httpActivity.name.toLowerFirst()/]([if (anAnnotationStack.bHasAuthenticationAnnotation)][if (httpActivity.hasBothModeAuthentication(anAnnotationStack))]@DefaultValue("guest") @HeaderParam("authorization") String authHeader, [elseif (httpActivity.hasAuthenticationOnlyMode(anAnnotationStack))]@HeaderParam("authorization") String authHeader, [/if][/if][for (httpActivityParam : HTTPActivityFunctionParameter | httpActivity.hasHTTPActivityParameter) separator(', ')][if (httpActivityParam.HTTPFunctionParameterHasJAXRSAnnotation.oclIsUndefined() =false)][httpActivityParam.HTTPFunctionParameterHasJAXRSAnnotation.JAXRSAnnotationText/][/if][httpActivityParam.type/] [httpActivityParam.name/][/for]){
	        [httpActivity.hasHTTPActivityHandler.name/] o[httpActivity.hasHTTPActivityHandler.name/] = new [httpActivity.hasHTTPActivityHandler.name/]([if (anAnnotationStack.bHasAuthenticationAnnotation)][if(httpActivity.hasGuestMode(anAnnotationStack) = false)]authHeader, [/if][/if][if (anAnnotationStack.hasCorePSM.hasJavaRModel->select(parentRM : JavaResourceModel | parentRM.hasRelatedJavaRMManager.hasRelatedJavaRModel->includes(jRCManager.hasAssociatedRMManager.hasRelatedJavaRModel))->size() = 1)][anAnnotationStack.hasCorePSM.hasJavaRModel->select(javaPRM : JavaResourceModel | javaPRM.hasRelatedJavaRMManager.hasRelatedJavaRModel->includes(jRCManager.hasAssociatedRMManager.hasRelatedJavaRModel))->at(1).parentName/]Id, [elseif (anAnnotationStack.hasCorePSM.hasJavaRModel->select(jPRM : JavaResourceModel | jPRM.hasRelatedJavaRMManager.hasRelatedJavaRModel->includes(jRCManager.hasAssociatedRMManager.hasRelatedJavaRModel))->size() > 1)][anAnnotationStack.hasCorePSM.hasJavaRModel->select(jPRM : JavaResourceModel | jPRM.hasRelatedJavaRMManager.hasRelatedJavaRModel->includes(jRCManager.hasAssociatedRMManager.hasRelatedJavaRModel) and ('Post' + jPRM.parentName + jRCManager.parentName = httpActivity.name))->at(1).parentName/]Id, [/if]o[jRCManager.hasAssociatedRMManager.hasRelatedJavaRModel.name/], oApplicationUri);
	        return o[httpActivity.hasHTTPActivityHandler.name/].post[jRCManager.hasAssociatedRMManager.hasRelatedJavaRModel.name/]();
	    }
	[/for]
	[/if]
	[else]
	[for (httpActivity : HTTPActivity | jRCManager.JavaRCManagerHasHTTPActivity->select(activity : HTTPActivity | activity.ActivityHTTPVerb = HTTPVerb::POST)) separator('\n')] 
		/* This function handles POST requests that are sent with any media type stated in the @Consumes JAX-RS annotation below 
	     and returns any response in any media type stated in the @Produces JAX-RS annotation below.*/
	    [for (activityJAXRSAnnotation : JAXRSAnnotation | httpActivity.HTTPActivityHasJAXRSAnnotation)]
		[activityJAXRSAnnotation.JAXRSAnnotationText/]
		[/for]
	    public [jRCManager.hasAssociatedRMManager.hasRelatedJavaRModel.name/] [httpActivity.name.toLowerFirst()/]([if (anAnnotationStack.bHasAuthenticationAnnotation)][if (httpActivity.hasBothModeAuthentication(anAnnotationStack))]@DefaultValue("guest") @HeaderParam("authorization") String authHeader, [elseif (httpActivity.hasAuthenticationOnlyMode(anAnnotationStack))]@HeaderParam("authorization") String authHeader, [/if][/if][for (httpActivityParam : HTTPActivityFunctionParameter | httpActivity.hasHTTPActivityParameter) separator(', ')][if (httpActivityParam.HTTPFunctionParameterHasJAXRSAnnotation.oclIsUndefined() =false)][httpActivityParam.HTTPFunctionParameterHasJAXRSAnnotation.JAXRSAnnotationText/][/if][httpActivityParam.type/] [httpActivityParam.name/][/for]){
	        [httpActivity.hasHTTPActivityHandler.name/] o[httpActivity.hasHTTPActivityHandler.name/] = new [httpActivity.hasHTTPActivityHandler.name/]([if (anAnnotationStack.bHasAuthenticationAnnotation)][if(httpActivity.hasGuestMode(anAnnotationStack) = false)]authHeader, [/if][/if][if (anAnnotationStack.hasCorePSM.hasJavaRModel->select(parentRM : JavaResourceModel | parentRM.hasRelatedJavaRMManager.hasRelatedJavaRModel->includes(jRCManager.hasAssociatedRMManager.hasRelatedJavaRModel))->size() = 1)][anAnnotationStack.hasCorePSM.hasJavaRModel->select(javaPRM : JavaResourceModel | javaPRM.hasRelatedJavaRMManager.hasRelatedJavaRModel->includes(jRCManager.hasAssociatedRMManager.hasRelatedJavaRModel))->at(1).parentName/]Id, [elseif (anAnnotationStack.hasCorePSM.hasJavaRModel->select(jPRM : JavaResourceModel | jPRM.hasRelatedJavaRMManager.hasRelatedJavaRModel->includes(jRCManager.hasAssociatedRMManager.hasRelatedJavaRModel))->size() > 1)][anAnnotationStack.hasCorePSM.hasJavaRModel->select(jPRM : JavaResourceModel | jPRM.hasRelatedJavaRMManager.hasRelatedJavaRModel->includes(jRCManager.hasAssociatedRMManager.hasRelatedJavaRModel) and ('Post' + jPRM.parentName + jRCManager.parentName = httpActivity.name))->at(1).parentName/]Id, [/if]o[jRCManager.hasAssociatedRMManager.hasRelatedJavaRModel.name/], oApplicationUri);
	        return o[httpActivity.hasHTTPActivityHandler.name/].post[jRCManager.hasAssociatedRMManager.hasRelatedJavaRModel.name/]();
	    }
	[/for]
	[/if]
[comment ..to here/]
[else]
	[for (httpActivity : HTTPActivity | jRCManager.JavaRCManagerHasHTTPActivity->select(activity : HTTPActivity | activity.ActivityHTTPVerb = HTTPVerb::POST)) separator('\n')] 
		/* This function handles POST requests that are sent with any media type stated in the @Consumes JAX-RS annotation below 
	     and returns any response in any media type stated in the @Produces JAX-RS annotation below.*/
	    [for (activityJAXRSAnnotation : JAXRSAnnotation | httpActivity.HTTPActivityHasJAXRSAnnotation)]
		[activityJAXRSAnnotation.JAXRSAnnotationText/]
		[/for]
	    public [jRCManager.hasAssociatedRMManager.hasRelatedJavaRModel.name/] [httpActivity.name.toLowerFirst()/]([if (anAnnotationStack.bHasAuthenticationAnnotation)][if (httpActivity.hasBothModeAuthentication(anAnnotationStack))]@DefaultValue("guest") @HeaderParam("authorization") String authHeader, [elseif (httpActivity.hasAuthenticationOnlyMode(anAnnotationStack))]@HeaderParam("authorization") String authHeader, [/if][/if][for (httpActivityParam : HTTPActivityFunctionParameter | httpActivity.hasHTTPActivityParameter) separator(', ')][if (httpActivityParam.HTTPFunctionParameterHasJAXRSAnnotation.oclIsUndefined() =false)][httpActivityParam.HTTPFunctionParameterHasJAXRSAnnotation.JAXRSAnnotationText/][/if][httpActivityParam.type/] [httpActivityParam.name/][/for]){
	        [httpActivity.hasHTTPActivityHandler.name/] o[httpActivity.hasHTTPActivityHandler.name/] = new [httpActivity.hasHTTPActivityHandler.name/]([if (anAnnotationStack.bHasAuthenticationAnnotation)][if(httpActivity.hasGuestMode(anAnnotationStack) = false)]authHeader, [/if][/if][if (anAnnotationStack.hasCorePSM.hasJavaRModel->select(parentRM : JavaResourceModel | parentRM.hasRelatedJavaRMManager.hasRelatedJavaRModel->includes(jRCManager.hasAssociatedRMManager.hasRelatedJavaRModel))->size() = 1)][anAnnotationStack.hasCorePSM.hasJavaRModel->select(javaPRM : JavaResourceModel | javaPRM.hasRelatedJavaRMManager.hasRelatedJavaRModel->includes(jRCManager.hasAssociatedRMManager.hasRelatedJavaRModel))->at(1).parentName/]Id, [elseif (anAnnotationStack.hasCorePSM.hasJavaRModel->select(jPRM : JavaResourceModel | jPRM.hasRelatedJavaRMManager.hasRelatedJavaRModel->includes(jRCManager.hasAssociatedRMManager.hasRelatedJavaRModel))->size() > 1)][anAnnotationStack.hasCorePSM.hasJavaRModel->select(jPRM : JavaResourceModel | jPRM.hasRelatedJavaRMManager.hasRelatedJavaRModel->includes(jRCManager.hasAssociatedRMManager.hasRelatedJavaRModel) and ('Post' + jPRM.parentName + jRCManager.parentName = httpActivity.name))->at(1).parentName/]Id, [/if]o[jRCManager.hasAssociatedRMManager.hasRelatedJavaRModel.name/], oApplicationUri);
	        return o[httpActivity.hasHTTPActivityHandler.name/].post[jRCManager.hasAssociatedRMManager.hasRelatedJavaRModel.name/]();
	    }
	[/for]
[/if]
[else]
	[for (httpActivity : HTTPActivity | jRCManager.JavaRCManagerHasHTTPActivity->select(activity : HTTPActivity | activity.ActivityHTTPVerb = HTTPVerb::POST)) separator('\n')] 
		/* This function handles POST requests that are sent with any media type stated in the @Consumes JAX-RS annotation below 
	     and returns any response in any media type stated in the @Produces JAX-RS annotation below.*/
	    [for (activityJAXRSAnnotation : JAXRSAnnotation | httpActivity.HTTPActivityHasJAXRSAnnotation)]
		[activityJAXRSAnnotation.JAXRSAnnotationText/]
		[/for]
	    public [jRCManager.hasAssociatedRMManager.hasRelatedJavaRModel.name/] [httpActivity.name.toLowerFirst()/]([if (anAnnotationStack.bHasAuthenticationAnnotation)][if (httpActivity.hasBothModeAuthentication(anAnnotationStack))]@DefaultValue("guest") @HeaderParam("authorization") String authHeader, [elseif (httpActivity.hasAuthenticationOnlyMode(anAnnotationStack))]@HeaderParam("authorization") String authHeader, [/if][/if][for (httpActivityParam : HTTPActivityFunctionParameter | httpActivity.hasHTTPActivityParameter) separator(', ')][if (httpActivityParam.HTTPFunctionParameterHasJAXRSAnnotation.oclIsUndefined() =false)][httpActivityParam.HTTPFunctionParameterHasJAXRSAnnotation.JAXRSAnnotationText/][/if][httpActivityParam.type/] [httpActivityParam.name/][/for]){
	        [httpActivity.hasHTTPActivityHandler.name/] o[httpActivity.hasHTTPActivityHandler.name/] = new [httpActivity.hasHTTPActivityHandler.name/]([if (anAnnotationStack.bHasAuthenticationAnnotation)][if(httpActivity.hasGuestMode(anAnnotationStack) = false)]authHeader, [/if][/if][if (anAnnotationStack.hasCorePSM.hasJavaRModel->select(parentRM : JavaResourceModel | parentRM.hasRelatedJavaRMManager.hasRelatedJavaRModel->includes(jRCManager.hasAssociatedRMManager.hasRelatedJavaRModel))->size() = 1)][anAnnotationStack.hasCorePSM.hasJavaRModel->select(javaPRM : JavaResourceModel | javaPRM.hasRelatedJavaRMManager.hasRelatedJavaRModel->includes(jRCManager.hasAssociatedRMManager.hasRelatedJavaRModel))->at(1).parentName/]Id, [elseif (anAnnotationStack.hasCorePSM.hasJavaRModel->select(jPRM : JavaResourceModel | jPRM.hasRelatedJavaRMManager.hasRelatedJavaRModel->includes(jRCManager.hasAssociatedRMManager.hasRelatedJavaRModel))->size() > 1)][anAnnotationStack.hasCorePSM.hasJavaRModel->select(jPRM : JavaResourceModel | jPRM.hasRelatedJavaRMManager.hasRelatedJavaRModel->includes(jRCManager.hasAssociatedRMManager.hasRelatedJavaRModel) and ('Post' + jPRM.parentName + jRCManager.parentName = httpActivity.name))->at(1).parentName/]Id, [/if]o[jRCManager.hasAssociatedRMManager.hasRelatedJavaRModel.name/], oApplicationUri);
	        return o[httpActivity.hasHTTPActivityHandler.name/].post[jRCManager.hasAssociatedRMManager.hasRelatedJavaRModel.name/]();
	    }
	[/for]
[/if]

[for (httpActivity : HTTPActivity | jRCManager.JavaRCManagerHasHTTPActivity->select(activity : HTTPActivity | activity.ActivityHTTPVerb = HTTPVerb::GET)) separator('\n')] 
    /* This function handles GET requests  
     and returns any response in any media type stated in the @Produces JAX-RS annotation below.*/
    [for (activityJAXRSAnnotation : JAXRSAnnotation | httpActivity.HTTPActivityHasJAXRSAnnotation)]
	[activityJAXRSAnnotation.JAXRSAnnotationText/]
	[/for]
    public [jRCManager.hasAssociatedRMManager.name/] [httpActivity.name.toLowerFirst()/]([if (anAnnotationStack.bHasAuthenticationAnnotation)][if (httpActivity.hasBothModeAuthentication(anAnnotationStack))]@DefaultValue("guest") @HeaderParam("authorization") String authHeader[if (httpActivity.hasHTTPActivityParameter->size() >0)], [/if][elseif (httpActivity.hasAuthenticationOnlyMode(anAnnotationStack))]@HeaderParam("authorization") String authHeader[if (httpActivity.hasHTTPActivityParameter->size() >0)], [/if][/if][/if][for (httpActivityParam : HTTPActivityFunctionParameter | httpActivity.hasHTTPActivityParameter) separator(', ')][if (httpActivityParam.HTTPFunctionParameterHasJAXRSAnnotation.oclIsUndefined() =false)][httpActivityParam.HTTPFunctionParameterHasJAXRSAnnotation.JAXRSAnnotationText/][/if][httpActivityParam.type/] [httpActivityParam.name/][/for]){
        [httpActivity.hasHTTPActivityHandler.name/] o[httpActivity.hasHTTPActivityHandler.name/] = new [httpActivity.hasHTTPActivityHandler.name/]([if (anAnnotationStack.bHasAuthenticationAnnotation)][if(httpActivity.hasGuestMode(anAnnotationStack) = false)]authHeader, [/if][/if][if (anAnnotationStack.hasCorePSM.hasJavaRModel->select(parentRM : JavaResourceModel | parentRM.hasRelatedJavaRMManager.hasRelatedJavaRModel->includes(jRCManager.hasAssociatedRMManager.hasRelatedJavaRModel))->size() = 1)][anAnnotationStack.hasCorePSM.hasJavaRModel->select(javaPRM : JavaResourceModel | javaPRM.hasRelatedJavaRMManager.hasRelatedJavaRModel->includes(jRCManager.hasAssociatedRMManager.hasRelatedJavaRModel))->at(1).parentName/]Id, [elseif (anAnnotationStack.hasCorePSM.hasJavaRModel->select(jPRM : JavaResourceModel | jPRM.hasRelatedJavaRMManager.hasRelatedJavaRModel->includes(jRCManager.hasAssociatedRMManager.hasRelatedJavaRModel))->size() > 1)][anAnnotationStack.hasCorePSM.hasJavaRModel->select(jPRM : JavaResourceModel | jPRM.hasRelatedJavaRMManager.hasRelatedJavaRModel->includes(jRCManager.hasAssociatedRMManager.hasRelatedJavaRModel) and ('Get' + jPRM.parentName + jRCManager.parentName + 'List' = httpActivity.name))->at(1).parentName/]Id, [/if]oApplicationUri);
        return o[httpActivity.hasHTTPActivityHandler.name/].get[jRCManager.hasAssociatedRMManager.name/]();
    }
[/for]

}
[/file]
[/for]
[/template]

[query private hasBothModeAuthentication(anHttpActivity : HTTPActivity, anAnnotationStack : AnnotationStack) : Boolean =
	getAuthenticationLayerBothModeAnnotations(anAnnotationStack)->exists(bothModeAnnotation | bothModeAnnotation.HTTPActivityHasAuthenticationMode->exists(annHTTPActivity | annHTTPActivity.annotatesHTTPActivity.name = anHttpActivity.name))
/]

[query private getAuthenticationLayerBothModeAnnotations(anAnnotationStack : AnnotationStack) : Sequence(BothMode) =
	anAnnotationStack.hasAuthenticationLayer.hasAnnotation->select( annotation | annotation.oclIsTypeOf(BothMode))->asSequence()
/]

[query private hasAuthenticationOnlyMode(anHttpActivity : HTTPActivity, anAnnotationStack : AnnotationStack) : Boolean =
	getAuthenticationLayerAuthenticationOnlyModeAnnotations(anAnnotationStack)->exists(authenticationOnlyMode | authenticationOnlyMode.HTTPActivityHasAuthenticationMode->exists(annHTTPActivity | annHTTPActivity.annotatesHTTPActivity.name = anHttpActivity.name))
/]

[query private getAuthenticationLayerAuthenticationOnlyModeAnnotations(anAnnotationStack : AnnotationStack) : Sequence(AuthenticationOnlyMode) =
	anAnnotationStack.hasAuthenticationLayer.hasAnnotation->select( annotation | annotation.oclIsTypeOf(AuthenticationOnlyMode))->asSequence()
/]

[query private hasGuestMode(anHttpActivity : HTTPActivity, anAnnotationStack : AnnotationStack) : Boolean =
	getAuthenticationLayerGuestModeAnnotations(anAnnotationStack)->exists(guestMode | guestMode.HTTPActivityHasAuthenticationMode->exists( annHTTPActivity | annHTTPActivity.annotatesHTTPActivity.name = anHttpActivity.name))
/]

[query private getAuthenticationLayerGuestModeAnnotations(anAnnotationStack : AnnotationStack) : Sequence(GuestMode) =
	anAnnotationStack.hasAuthenticationLayer.hasAnnotation->select( annotation | annotation.oclIsTypeOf(GuestMode))->asSequence()
/]

[comment The Observer Code from here ../]

[query private getJavaObservableAnnResources(anAnnotationStack : AnnotationStack) : Set(AnnJavaResourceModel) =
	getJavaObservableAnnHTTPActivityHandler().referencesAnnJavaResourceModel -> asSet()
/]

[query private getJavaObservableAnnHTTPActivityHandler(anAnnotationStack : AnnotationStack) : Set(JavaObservableAnnHTTPActivityHandler) =
	anAnnotationStack.hasDesignPatternsLayer.hasAnnotation -> select(a | a.oclIsTypeOf(JavaObservableAnnHTTPActivityHandler)) -> asSet()
/]

[query private hasObserverPattern(anAnnotationStack : AnnotationStack) : Boolean =
	anAnnotationStack.hasDesignPatternsLayer.hasAnnotation -> exists(annotation | annotation.oclIsTypeOf(JavaObserverPattern))
/]

[comment In the javaRCManager only the POST requests can be observed /]
[query private getJavaObservableAnnHTTPActivityHandlers(anAnnotationStack : AnnotationStack) : Sequence(JavaObservableAnnHTTPActivityHandler) =
	anAnnotationStack.hasDesignPatternsLayer.hasAnnotation -> select(annotation | annotation.oclIsTypeOf(JavaObservableAnnHTTPActivityHandler)) -> asSequence()
/]

[query private hasObservablePost(anAnnotationStack : AnnotationStack) : Boolean =
	 anAnnotationStack.getJavaObservableAnnHTTPActivityHandlers() ->asSequence() -> collect(a | a.extendsAnnJavaHTTPActivityHandler.annotatesHTTPActivityHandler) -> exists(b |b.name.equalsIgnoreCase('POST'))
/]

[comment ..to here/]


